<?xml version="1.0" encoding="UTF-8"?>
<svg width="24px" height="20px" viewBox="0 0 24 20" version="1.1" xmlns="http://www.w3.org/2000/svg" xmlns:xlink="http://www.w3.org/1999/xlink">
    <!-- Generator: Sketch 59.1 (86144) - https://sketch.com -->
    <title>download</title>
    <desc>Created with Sketch.</desc>
    <g id="Main" stroke="none" stroke-width="1" fill="none" fill-rule="evenodd">
        <g id="btns_group" transform="translate(-53.000000, -10.000000)" fill="#fff" fill-rule="nonzero">
            <g id="btns" transform="translate(8.000000, 0.000000)">
                <g id="Group-8" transform="translate(11.000000, 0.000000)">
                    <g id="Group" transform="translate(33.500000, 8.000000)">
                        <g id="download" transform="translate(0.833333, 2.000000)">
                            <path d="M22.1762667,13.7309333 C21.8564,13.7309333 21.5969778,13.9903556 21.5969778,14.3102222 L21.5969778,16.5237333 C21.5969778,17.8013778 20.5575111,18.8408444 19.2798667,18.8408444 L3.47568889,18.8408444 C2.19804444,18.8408444 1.15857778,17.8013778 1.15857778,16.5237333 L1.15857778,14.3102222 C1.15857778,13.9903556 0.899244444,13.7309333 0.579288889,13.7309333 C0.259333333,13.7309333 0,13.9903111 0,14.3102222 L0,16.5237333 C0,18.4402222 1.5592,19.9994222 3.47568889,19.9994222 L19.2798667,19.9994222 C21.1963556,19.9994222 22.7555556,18.4402222 22.7555556,16.5237333 L22.7555556,14.3102222 C22.7555556,13.9903111 22.4962222,13.7309333 22.1762667,13.7309333 Z" id="Path"></path>
                            <path d="M18.6592444,16.0133333 L4.09631111,16.0133333 C3.77644444,16.0133333 3.51702222,16.2727556 3.51702222,16.5926222 C3.51702222,16.9124889 3.77635556,17.1719111 4.09631111,17.1719111 L18.6592,17.1719111 C18.9791556,17.1719111 19.2384889,16.9125778 19.2384889,16.5926222 C19.2384889,16.2727556 18.9791556,16.0133333 18.6592444,16.0133333 Z" id="Path"></path>
                            <path d="M17.2408444,7.86355556 C17.0277333,7.62502222 16.6615556,7.60426667 16.4228889,7.81742222 L11.9570222,11.8069778 L11.9570222,0.579911111 C11.9570222,0.260044444 11.6976889,0.000622222222 11.3777333,0.000622222222 C11.0578667,0.000622222222 10.7984444,0.259955556 10.7984444,0.579911111 L10.7984444,11.8069778 L6.33257778,7.81746667 C6.09404444,7.60431111 5.72782222,7.62511111 5.51462222,7.8636 C5.30155556,8.10222222 5.32213333,8.46844444 5.56071111,8.68155556 L10.4128889,13.0160889 C10.6878667,13.2618222 11.0327111,13.3846222 11.3776889,13.3846222 C11.7225333,13.3846222 12.0674222,13.2618222 12.3424889,13.0162222 L17.1946667,8.68155556 C17.4333333,8.46831111 17.4539556,8.10208889 17.2408444,7.86355556 Z" id="Path"></path>
                        </g>
                    </g>
                </g>
            </g>
        </g>
    </g>
</svg>
