<?xml version="1.0" encoding="UTF-8"?>
<svg width="32px" height="32px" viewBox="0 0 32 32" version="1.1" xmlns="http://www.w3.org/2000/svg" xmlns:xlink="http://www.w3.org/1999/xlink">
    <!-- Generator: Sketch 59.1 (86144) - https://sketch.com -->
    <title>search</title>
    <desc>Created with Sketch.</desc>
    <g id="Main" stroke="none" stroke-width="1" fill="none" fill-rule="evenodd">
        <g id="Artboard" transform="translate(-30.000000, -84.000000)" fill-rule="nonzero">
            <g id="search" transform="translate(30.000000, 84.000000)">
                <path d="M0.571428571,0.571428571 L0.571428571,31.4285714 L31.4285714,31.4285714 L31.4285714,0.571428571 L0.571428571,0.571428571 Z" id="Rectangle-7" stroke="#E57200" stroke-width="1.14285714" fill="#E57200"></path>
                <path d="M14.0585938,7.5 C15.7487064,7.5 17.1881451,8.10155648 18.3769531,9.3046875 C19.5657612,10.5078185 20.1601562,11.9544186 20.1601562,13.6445312 C20.1601562,15.162768 19.673182,16.4947859 18.6992188,17.640625 L19,17.8554688 L19.7734375,17.8554688 L24.5,22.5820312 L23.0820312,24 L18.3984375,19.2734375 L18.3984375,18.5429688 L18.0976562,18.2851562 C16.9518172,19.2591195 15.6197993,19.7460938 14.1015625,19.7460938 C12.4114499,19.7460938 10.9720112,19.1516987 9.78320312,17.9628906 C8.5943951,16.7740826 8,15.3346439 8,13.6445312 C8,11.9544186 8.5943951,10.5078185 9.78320312,9.3046875 C10.9720112,8.10155648 12.3971271,7.5 14.0585938,7.5 Z M14.1015625,9.390625 C12.9270775,9.390625 11.9316447,9.80598543 11.1152344,10.6367188 C10.298824,11.4674521 9.890625,12.4700462 9.890625,13.6445312 C9.890625,14.8190163 10.2916627,15.8216104 11.09375,16.6523438 C11.9244833,17.4544311 12.9270775,17.8554688 14.1015625,17.8554688 C15.2760475,17.8554688 16.2786417,17.4472697 17.109375,16.6308594 C17.9401083,15.814449 18.3554688,14.8190163 18.3554688,13.6445312 C18.3554688,12.4700462 17.9401083,11.4674521 17.109375,10.6367188 C16.2786417,9.80598543 15.2760475,9.390625 14.1015625,9.390625 Z" fill="#FFFFFF"></path>
            </g>
        </g>
    </g>
</svg>